\relax 
\@writefile{toc}{\contentsline {section}{\numberline {1}Language description}{1}}
\@writefile{toc}{\contentsline {subsection}{\numberline {1.1}Standard library}{1}}
\@writefile{toc}{\contentsline {subsubsection}{\numberline {1.1.1}std\_print}{1}}
\@writefile{toc}{\contentsline {subsubsection}{\numberline {1.1.2}std\_start\_thread}{1}}
\@writefile{toc}{\contentsline {subsubsection}{\numberline {1.1.3}std\_current\_thread}{1}}
\@writefile{toc}{\contentsline {subsubsection}{\numberline {1.1.4}std\_new\_lock}{1}}
\@writefile{toc}{\contentsline {subsubsection}{\numberline {1.1.5}std\_lock}{1}}
\@writefile{toc}{\contentsline {subsubsection}{\numberline {1.1.6}std\_unlock}{1}}
\@writefile{toc}{\contentsline {subsubsection}{\numberline {1.1.7}std\_tuple\_index}{2}}
\@writefile{toc}{\contentsline {subsection}{\numberline {1.2}Message passing}{2}}
\@writefile{toc}{\contentsline {subsubsection}{\numberline {1.2.1}Sending messages}{2}}
\@writefile{toc}{\contentsline {subsubsection}{\numberline {1.2.2}Receiving messages}{2}}
